<?xml version="1.0" encoding="utf-8"?>
<!-- Generator: Adobe Illustrator 19.2.1, SVG Export Plug-In . SVG Version: 6.00 Build 0)  -->
<svg version="1.1" id="layer" xmlns="http://www.w3.org/2000/svg" xmlns:xlink="http://www.w3.org/1999/xlink" x="0px" y="0px"
	 viewBox="0 0 652 652" style="enable-background:new 0 0 652 652;" xml:space="preserve">
<style type="text/css">
	.st0{fill:#004289;}
	.st1{fill:#2EB4D3;}
	.st2{fill:#575756;}
	.st3{fill:#A8A8A7;}
</style>
<path class="st0" d="M231.9,253.7c9.3-4.5,27.6-11.2,50.9-9c1.8,1.9,3.4,3.7,5,5.6c17,20.3,39,23,39.9,23.1c1,0.1,2-0.6,2.1-1.7
	c0.1-1-0.6-2-1.7-2.1c-0.2,0-21.4-2.7-37.5-21.8c-0.7-0.8-1.4-1.6-2.1-2.5c2.7,0.4,5.4,1,8.1,1.6c19.7,4.8,31.3,13.8,41.5,21.7
	c7.7,6,15.1,11.8,25,15c-5.4,3.9-11.2,7-17.2,9.3c-5.4-3-11.9-5.5-20.5-7.2c-8.8-1.8-17.1-2-24.6-1.3c-2.7,0.2-5.2,0.6-7.7,1
	c-4.1-2.6-8.3-5.6-12.6-8.5C264.8,266.1,248.6,254.8,231.9,253.7 M307.2,313.1c9.8,5.2,20.8,11.2,34.4,15.8
	c17.1,5.9,34.7,0.8,48.1-5.9c-15.1-2.3-22.6-8.8-30.5-15.7c-4-3.5-8.2-7.1-13.5-10.3c-11.4,3.9-22.9,4.7-32.9,2.1
	c-6.6-1.7-13.3-5.3-20.3-9.7c-11.6,2.3-20.9,6.6-26.9,10C280.1,298.6,292.3,305.2,307.2,313.1"/>
<path class="st1" d="M340.4,265.8c-10.5-8.2-22.4-17.4-42.9-22.4c-4.5-1.1-8.8-1.8-12.9-2.3c-10.8-11.2-24.1-21.2-35.9-24.7
	c10.5-1.9,28.7-3.3,49.2,3.6c14.4,4.9,21.4,10.4,26.9,14.8c7.2,5.7,12.8,10.2,29,9.4c11.5-0.6,18.1-5.4,24.4-10.1
	c8.6-6.4,16.7-12.4,37.3-9c-7.6,2.8-18.3,10.2-27.2,28.8c-5,10.5-12.6,19.7-21.4,26.9C356.3,278.2,348.8,272.3,340.4,265.8
	 M298.2,288.6c5.4,3.1,10.6,5.6,15.6,7c8.6,2.3,18,1.8,27.3-0.9c-4.4-2.1-9.7-3.9-16.3-5.2C315.2,287.6,306.2,287.5,298.2,288.6
	 M396.5,319.3c17-10.1,30.7-24.1,36.3-32.9c8.2-12.8,21.4-17.9,29.4-19.8c-35.5-13.1-46.1-3.5-57.3,6.6c-6.5,5.9-13.3,12-24.9,13
	h-0.2c-4.4,0-8.3-0.5-12-1.2c-3.5,2.7-7.1,5.1-11,7.2c-2.2,1.2-4.5,2.3-6.8,3.3c4.5,3,8.2,6.1,11.6,9.1c8.6,7.5,16.1,14.1,33.8,15.3
	C395.8,319.7,396.2,319.5,396.5,319.3 M328.4,328c0,0,21.6,32,55.3,29.3c33.7-2.8,37.8-33,71.7-39.5c0,0-10-7.4-22.4-6.4
	c-12.3,1-21.8,12.8-36.7,12.4C396.4,323.7,363.4,345.5,328.4,328"/>
<path class="st2" d="M126.8,428.9h-16.5c-4.7,0-5.5-2.3-5.5-2.3h0l-16.8-48l-17.5,50.3H54.2c-4.7,0-5.5-2.3-5.5-2.3l-28.5-85.7H36
	c2,0.1,10.1,0.8,12.6,9.2l12.5,41.3L78,340.6h20.9l16.9,50.8l15.3-50.5h20.4c1.3,0.1,4.4,1.1,1.8,9L126.8,428.9z M334.8,428.2h-15.5
	c-9.6,0-12.8-5.8-13.6-7.4l-3.3-8.1h-33.7l-6.2,15.6h-25.5l34-80.3c0,0,3.1-7.7,10.1-7.7h16.5L334.8,428.2z M295.4,393.8l-9.8-24.8
	l-9.9,24.8H295.4z M199.6,407.9c-12.3,0-20.9-10.2-20.9-23.3v-0.2c0-12.7,8.6-23.1,20.9-23.1c5.6,0,10,1.8,13.7,4.8
	c1.3,1,6.6,4.5,11.7,0.5l11.9-9.2c-7.7-10.8-19.2-18.2-37.1-18.2c-26.5,0-46.1,20-46.1,45.4v0.2c0,26.1,20.1,45.2,45.1,45.2
	c19.4,0,30.5-8.4,38.7-19.7l-18.2-13C214.1,403.7,208.7,407.9,199.6,407.9"/>
<rect x="362.5" y="369.1" class="st3" width="1.4" height="57.6"/>
<path class="st2" d="M384.5,376.2h1.8v14.1h8.9v1.7h-10.7V376.2z M402.6,390.8c-2.1,0-3.9-1.4-4.1-3.9h9.2c0-0.3,0-0.4,0-0.6
	c0-3.4-2-6.2-5.4-6.2c-3.2,0-5.6,2.7-5.6,6.1c0,3.6,2.6,6.1,5.8,6.1c2.2,0,3.6-0.9,4.8-2.2l-1.1-1
	C405.3,390.1,404.2,390.8,402.6,390.8 M398.5,385.5c0.3-2.3,1.8-3.9,3.8-3.9c2.3,0,3.5,1.8,3.7,3.9H398.5z M409.5,388.6
	c0,2.4,2.2,3.6,4.4,3.6c2.1,0,3.4-0.9,4.2-2v1.7h1.7v-7.1c0-1.5-0.4-2.6-1.2-3.4c-0.8-0.8-2.1-1.3-3.8-1.3c-1.7,0-2.9,0.4-4.2,1
	l0.5,1.4c1.1-0.5,2.2-0.8,3.5-0.8c2.2,0,3.5,1.1,3.5,3.1v0.4c-1-0.3-2.1-0.5-3.6-0.5C411.5,384.8,409.5,386.1,409.5,388.6
	L409.5,388.6 M418,387.7c0,1.9-1.7,3.1-3.9,3.1c-1.6,0-2.9-0.9-2.9-2.3v0c0-1.4,1.2-2.3,3.4-2.3c1.4,0,2.6,0.2,3.4,0.5V387.7
	 M422.3,386.2c0,3.8,2.8,6,5.6,6c2.1,0,3.5-1.2,4.5-2.6v2.3h1.7v-16.4h-1.7v7c-0.9-1.3-2.3-2.5-4.5-2.5
	C425.1,380.1,422.3,382.4,422.3,386.2L422.3,386.2 M432.4,386.2c0,2.7-2,4.5-4.2,4.5c-2.2,0-4.1-1.8-4.1-4.5v0
	c0-2.8,1.9-4.5,4.1-4.5C430.3,381.7,432.4,383.5,432.4,386.2L432.4,386.2 M437.5,377.8h2v-1.9h-2V377.8z M437.6,392h1.7v-11.6h-1.7
	V392z M442.9,392h1.7v-6.7c0-2.2,1.5-3.6,3.5-3.6c2.1,0,3.2,1.3,3.2,3.5v6.8h1.7v-7.2c0-2.8-1.6-4.7-4.4-4.7c-2,0-3.2,1-4,2.3v-2
	h-1.7V392z M456.2,394c1.5,1.1,3.3,1.6,5.3,1.6c1.8,0,3.4-0.5,4.5-1.5c0.9-1,1.5-2.3,1.5-4.1v-9.6h-1.7v2.1c-1-1.3-2.4-2.3-4.6-2.3
	c-2.8,0-5.5,2.1-5.5,5.5v0c0,3.3,2.7,5.5,5.5,5.5c2.1,0,3.6-1.1,4.6-2.5v1.4c0,2.7-1.7,4.1-4.2,4.1c-1.6,0-3.1-0.5-4.5-1.5
	L456.2,394 M465.8,385.6c0,2.3-2.1,3.9-4.3,3.9c-2.1,0-4-1.6-4-4v-0.1c0-2.4,1.8-3.9,4-3.9C463.7,381.6,465.8,383.2,465.8,385.6
	L465.8,385.6 M477.8,388.9c0,2.4,1.4,3.3,3.3,3.3c0.8,0,1.5-0.2,2.1-0.5v-1.5c-0.6,0.3-1.1,0.4-1.7,0.4c-1.2,0-2-0.5-2-1.9v-6.8h3.7
	v-1.5h-3.7v-3.5h-1.7v3.5h-1.6v1.5h1.6V388.9 M485.8,392h1.7v-6.7c0-2.2,1.5-3.6,3.5-3.6c2.1,0,3.2,1.3,3.2,3.5v6.8h1.7v-7.2
	c0-2.8-1.6-4.7-4.5-4.7c-2,0-3.2,1-4,2.3v-6.8h-1.7V392z M504.4,390.8c-2.1,0-3.9-1.4-4.1-3.9h9.2c0-0.3,0-0.4,0-0.6
	c0-3.4-2-6.2-5.5-6.2c-3.2,0-5.6,2.7-5.6,6.1c0,3.6,2.6,6.1,5.8,6.1c2.2,0,3.6-0.9,4.8-2.2l-1.1-1
	C507.1,390.1,506,390.8,504.4,390.8 M500.3,385.5c0.2-2.3,1.8-3.9,3.8-3.9c2.3,0,3.5,1.8,3.7,3.9H500.3z M523.2,392.1h1.5l4.4-12.8
	l4.3,12.8h1.5l5.6-15.9h-1.9l-4.5,13.1l-4.3-13.2h-1.5l-4.3,13.2l-4.5-13.1h-1.9L523.2,392.1z M540.8,386.3c0,3.3,2.5,6,6,6
	c3.5,0,6.1-2.8,6.1-6.1v0c0-3.3-2.6-6-6.1-6C543.3,380.1,540.8,382.9,540.8,386.3L540.8,386.3 M551.1,386.3c0,2.4-1.7,4.5-4.3,4.5
	c-2.5,0-4.3-2-4.3-4.5v0c0-2.5,1.7-4.5,4.3-4.5C549.3,381.6,551.1,383.7,551.1,386.3L551.1,386.3 M555.6,392h1.7v-4.6
	c0-3.5,2.1-5.3,4.6-5.3h0.1v-1.9c-2.2-0.1-3.9,1.3-4.8,3.2v-3h-1.7V392z M564.4,392h1.7v-16.4h-1.7V392z M569.1,386.2
	c0,3.8,2.8,6,5.6,6c2.1,0,3.5-1.2,4.5-2.6v2.3h1.7v-16.4h-1.7v7c-0.9-1.3-2.3-2.5-4.5-2.5C571.9,380.1,569.1,382.4,569.1,386.2
	L569.1,386.2 M579.2,386.2c0,2.7-2,4.5-4.2,4.5c-2.2,0-4.1-1.8-4.1-4.5v0c0-2.8,1.9-4.5,4.1-4.5
	C577.1,381.7,579.2,383.5,579.2,386.2L579.2,386.2 M384.2,403.3h2v-1.9h-2V403.3z M384.3,417.5h1.7v-11.7h-1.7V417.5z M389.7,417.5
	h1.7v-6.7c0-2.2,1.5-3.6,3.5-3.6c2.1,0,3.2,1.4,3.2,3.5v6.8h1.7v-7.2c0-2.8-1.7-4.7-4.5-4.7c-2,0-3.2,1-4,2.3v-2h-1.7V417.5z
	 M409.7,417.5h10.6v-1.7h-8.9v-14.1h-1.8V417.5z M422,411.7c0,3.3,2.6,6,6,6c3.5,0,6.1-2.8,6.1-6.1v-0.1c0-3.3-2.5-6-6-6
	C424.5,405.6,422,408.4,422,411.7L422,411.7 M432.3,411.7c0,2.5-1.7,4.5-4.3,4.5c-2.5,0-4.3-2-4.3-4.5v-0.1c0-2.4,1.7-4.5,4.3-4.5
	C430.5,407.2,432.3,409.2,432.3,411.7L432.3,411.7 M436.6,419.5c1.5,1.1,3.4,1.6,5.3,1.6c1.8,0,3.4-0.5,4.4-1.6
	c1-0.9,1.5-2.3,1.5-4.1v-9.6h-1.7v2.1c-0.9-1.3-2.4-2.4-4.6-2.4c-2.8,0-5.5,2.1-5.5,5.5v0c0,3.3,2.7,5.4,5.5,5.4
	c2.1,0,3.6-1.1,4.6-2.4v1.4c0,2.7-1.7,4.1-4.2,4.1c-1.7,0-3.2-0.5-4.5-1.5L436.6,419.5 M446.2,411.1c0,2.3-2.1,3.9-4.3,3.9
	c-2.2,0-4-1.6-4-4v-0.1c0-2.4,1.8-3.9,4-3.9C444.1,407.2,446.2,408.7,446.2,411.1L446.2,411.1 M451.3,403.3h2v-1.9h-2V403.3z
	 M451.5,417.5h1.7v-11.7h-1.7V417.5z M455.8,416c1.3,1.1,3.2,1.7,4.8,1.7c2.3,0,4.1-1.3,4.1-3.5v-0.1c0-2.1-1.9-2.8-3.7-3.3
	c-1.6-0.5-3-0.9-3-2v0c0-1,0.9-1.7,2.3-1.7c1.1,0,2.3,0.4,3.4,1.1l0.8-1.3c-1.2-0.8-2.8-1.3-4.2-1.3c-2.3,0-4,1.3-4,3.3v0
	c0,2.1,2,2.8,3.9,3.3c1.5,0.4,2.9,0.9,2.9,2v0.1c0,1.1-1,1.8-2.4,1.8c-1.4,0-2.8-0.5-4-1.5L455.8,416 M467.9,414.4
	c0,2.4,1.4,3.3,3.3,3.3c0.8,0,1.5-0.2,2.1-0.5v-1.5c-0.6,0.3-1.1,0.4-1.7,0.4c-1.2,0-1.9-0.5-1.9-1.9v-6.8h3.7v-1.5h-3.7v-3.5h-1.7
	v3.5h-1.6v1.5h1.6V414.4 M476,403.3h2v-1.9h-2V403.3z M476.1,417.5h1.7v-11.7h-1.7V417.5z M480.7,411.7c0,3.3,2.6,6,6,6
	c2.2,0,3.6-1,4.8-2.3l-1.1-1c-0.9,1-2.1,1.7-3.6,1.7c-2.4,0-4.3-2-4.3-4.5v-0.1c0-2.5,1.8-4.5,4.2-4.5c1.6,0,2.6,0.8,3.5,1.8
	l1.1-1.2c-1.1-1.1-2.4-2.1-4.7-2.1C483.3,405.6,480.7,408.4,480.7,411.7L480.7,411.7 M492.9,416c1.3,1.1,3.2,1.7,4.8,1.7
	c2.3,0,4.2-1.3,4.2-3.5v-0.1c0-2.1-1.9-2.8-3.7-3.3c-1.5-0.5-3-0.9-3-2v0c0-1,0.9-1.7,2.3-1.7c1.1,0,2.4,0.4,3.4,1.1l0.8-1.3
	c-1.2-0.8-2.8-1.3-4.2-1.3c-2.3,0-4,1.3-4,3.3v0c0,2.1,2,2.8,3.9,3.3c1.5,0.4,2.9,0.9,2.9,2v0.1c0,1.1-1,1.8-2.4,1.8
	c-1.4,0-2.8-0.5-4-1.5L492.9,416 M511.2,417.5h1.8V412h3.8c3.4,0,6.2-1.7,6.2-5.1v-0.1c0-3.1-2.3-5-5.9-5h-5.9V417.5z M513,410.3
	v-6.9h4c2.6,0,4.2,1.2,4.2,3.4v0c0,2.1-1.7,3.5-4.3,3.5H513z M524.4,414.1c0,2.4,2.2,3.6,4.4,3.6c2,0,3.4-0.9,4.2-2v1.7h1.7v-7.1
	c0-1.5-0.4-2.6-1.2-3.4c-0.9-0.8-2.1-1.3-3.8-1.3c-1.7,0-3,0.4-4.2,1l0.5,1.4c1.1-0.5,2.2-0.8,3.5-0.8c2.2,0,3.5,1.1,3.5,3.1v0.4
	c-1-0.3-2.1-0.5-3.6-0.5C526.5,410.3,524.4,411.6,524.4,414.1L524.4,414.1 M533,413.2c0,1.9-1.7,3.2-3.9,3.2c-1.6,0-2.9-0.9-2.9-2.3
	v0c0-1.4,1.2-2.3,3.4-2.3c1.4,0,2.5,0.3,3.4,0.5V413.2 M537.9,417.5h1.7v-4.6c0-3.5,2.1-5.3,4.6-5.3h0.1v-1.9
	c-2.2-0.1-3.9,1.3-4.8,3.2v-3h-1.7V417.5z M547.2,414.4c0,2.4,1.4,3.3,3.3,3.3c0.8,0,1.5-0.2,2.1-0.5v-1.5c-0.6,0.3-1.1,0.4-1.7,0.4
	c-1.2,0-2-0.5-2-1.9v-6.8h3.7v-1.5h-3.7v-3.5h-1.7v3.5h-1.6v1.5h1.6V414.4 M555.2,417.5h1.7v-6.7c0-2.2,1.5-3.6,3.5-3.6
	c2.1,0,3.2,1.4,3.2,3.5v6.8h1.7v-7.2c0-2.8-1.6-4.7-4.5-4.7c-2,0-3.2,1-4,2.3v-2h-1.7V417.5z M573.8,416.3c-2.1,0-3.9-1.4-4.1-3.9
	h9.3c0-0.3,0-0.4,0-0.6c0-3.4-2-6.2-5.4-6.2c-3.2,0-5.6,2.7-5.6,6.1c0,3.6,2.6,6.1,5.8,6.1c2.2,0,3.6-0.9,4.8-2.2l-1.1-1
	C576.5,415.6,575.4,416.3,573.8,416.3 M569.7,411c0.3-2.3,1.8-3.9,3.8-3.9c2.3,0,3.5,1.8,3.7,3.9H569.7z M581.6,417.5h1.7v-4.6
	c0-3.5,2.1-5.3,4.6-5.3h0.1v-1.9c-2.2-0.1-3.9,1.3-4.8,3.2v-3h-1.7V417.5z M590.3,403.3h2v-1.9h-2V403.3z M590.4,417.5h1.7v-11.7
	h-1.7V417.5z M595.7,417.5h1.7v-6.7c0-2.2,1.5-3.6,3.5-3.6c2.1,0,3.2,1.4,3.2,3.5v6.8h1.7v-7.2c0-2.8-1.6-4.7-4.5-4.7
	c-2,0-3.2,1-4,2.3v-2h-1.7V417.5z M609,419.5c1.6,1.1,3.4,1.6,5.3,1.6c1.8,0,3.4-0.5,4.4-1.6c1-0.9,1.5-2.3,1.5-4.1v-9.6h-1.7v2.1
	c-0.9-1.3-2.4-2.4-4.6-2.4c-2.8,0-5.5,2.1-5.5,5.5v0c0,3.3,2.7,5.4,5.5,5.4c2.2,0,3.6-1.1,4.6-2.4v1.4c0,2.7-1.7,4.1-4.2,4.1
	c-1.7,0-3.1-0.5-4.5-1.5L609,419.5 M618.6,411.1c0,2.3-2.1,3.9-4.3,3.9c-2.2,0-4-1.6-4-4v-0.1c0-2.4,1.8-3.9,4-3.9
	C616.5,407.2,618.6,408.7,618.6,411.1L618.6,411.1"/>
</svg>
